…
!!! r-project "code"

    ```R linenums="1"
    cazy_tally <- cazy %>%
      mutate(cazy_id = str_remove(cazy_id, "_.*")) %>%
      group_by(bin, cazy_id) %>%
      tally(name = "hits") %>%
      drop_na()
    ```

!!! circle-check "Console output"

    ```
    # A tibble: 314 × 3
    # Groups:   bin [10]
       bin                            cazy_id  hits
       <chr>                          <chr>   <int>
     1 bin_0: Arcobacter nitrofigilis AA3         2
     2 bin_0: Arcobacter nitrofigilis AA4         1
     3 bin_0: Arcobacter nitrofigilis AA7         1
     4 bin_0: Arcobacter nitrofigilis CBM50       1
     5 bin_0: Arcobacter nitrofigilis CE11        1
     6 bin_0: Arcobacter nitrofigilis CE4         1
     7 bin_0: Arcobacter nitrofigilis GH102       1
     8 bin_0: Arcobacter nitrofigilis GH103       1
     9 bin_0: Arcobacter nitrofigilis GH13       10
    10 bin_0: Arcobacter nitrofigilis GH17        1
    # … with 304 more rows
    ```
…
