Presentation of data: *Optional exercise*: CAZy annotations heatmap - Metagenomics Summer School
…
We will now perform a summarising step, aggregating instances of multiple genes with the same annotation into a single count for each genome. We do this by

For each bin in the data.frame

For each annotation in the bin
Count the number of times the annotation is observed

For the majority of cases this will probably be one, but there will be a few cases where multiple annotations have been seen.

This process is done using the group_by and tally functions from dplyr, again using pipes to pass the data between functions.

cazy_counts = cazy_df %>% group_by(Bin, CAZy) %>% tally()

cazy_counts
# A tibble: 253 x 3
# Groups:   Bin [10]
#   Bin       CAZy            n
#   <chr>     <chr>       <int>
# 1 bin_0.txt AA3.hmm         1
# 2 bin_0.txt AA7.hmm         1
# 3 bin_0.txt CE11.hmm        1
# 4 bin_0.txt CE9.hmm         1
# 5 bin_0.txt GH100.hmm       1
# 6 bin_0.txt GH104.hmm       1
# 7 bin_0.txt GH116.hmm       1
# 8 bin_0.txt GH13_11.hmm     1
# 9 bin_0.txt GH13_20.hmm     1
#10 bin_0.txt GH13_9.hmm      1
# … with 243 more rows
…
